Prepare/clean BGD understory data
…
size.out %>%
  group_by(pres) %>%
  summarise_all(mean)

## # A tibble: 78 x 3
##     pres pres_test pres_train
##    <dbl>     <dbl>      <dbl>
##  1     1     0.287      0.713
##  2     2     0.51       0.922
##  3     3     0.656      0.978
##  4     4     0.764      0.996
##  5     5     0.831      0.997
##  6     6     0.869      1    
##  7     7     0.916      0.998
##  8     8     0.93       1    
##  9     9     0.95       1    
## 10    10     0.978      1    
## # i 68 more rows

pres.sum %>%
  group_by(pres) %>%
  tally()

## # A tibble: 78 x 2
##     pres     n
##    <dbl> <int>
##  1     1    85
##  2     2    42
##  3     3    39
##  4     4    27
##  5     5    22
##  6     6    16
##  7     7    10
##  8     8     8
##  9     9     6
## 10    10    10
## # i 68 more rows
…
  left_join(new.names, by=c("species_name"="species_name_field")) %>%
  group_by(species_name_model) %>%
  # just take first entry
  slice(1) %>%
  # red list and current hazard, from BIB website
  mutate(RLB = ifelse(RLB %in% c("3","G","2"),"endangered",
                      ifelse(RLB %in% c("R"),"rare",
                             ifelse(RLB %in% c("V"),"warning","not_on_list"))),
         RLD = ifelse(RLD %in% c("3","2","G"),"endangered",
                      ifelse(RLD %in% c("R"),"rare",
                             ifelse(RLD %in% c("V"),"warning","not_on_list")))) %>%
  dplyr::select(c(species_name_model,RLB,RLD)) %>%
  rename(species_name=species_name_model) # %>% commented out for Rmd

## # A tibble: 446 x 3
## # Groups:   species_name [446]
##    species_name          RLB         RLD        
##    <chr>                 <chr>       <chr>      
##  1 Achillea_atrata       not_on_list not_on_list
##  2 Achillea_clavennae    not_on_list not_on_list
##  3 Achillea_millefolium  not_on_list not_on_list
##  4 Acinos_alpinus        not_on_list not_on_list
##  5 Aconitum_lycoctonum   endangered  not_on_list
##  6 Aconitum_napellus     warning     not_on_list
##  7 Aconitum_spec.        not_on_list not_on_list
##  8 Actaea_spicata        not_on_list not_on_list
##  9 Adenostyles_alliariae not_on_list not_on_list
## 10 Adenostyles_alpina    not_on_list not_on_list
## # i 436 more rows
…
ellen.plotprep %>%
  pivot_wider(names_from=OriglName, values_from=OrigValueStr)

## # A tibble: 4,995 x 12
##    plot_id   species_name cover species_name_ellenberg include Licht     T     K
##    <chr>     <chr>        <dbl> <chr>                  <chr>   <dbl> <dbl> <dbl>
##  1 BGD_BIO_~ Adenostyles~   2   Adenostyles alliariae  yes         6     3     2
##  2 BGD_BIO_~ Asplenium_r~   0.5 Asplenium ruta-muraria yes         8    NA     3
##  3 BGD_BIO_~ Asplenium_v~   0.5 Asplenium viride       yes         4     4     3
##  4 BGD_BIO_~ Aster_belli~   0.5 Aster bellidiastrum    yes         7     3     4
##  5 BGD_BIO_~ Athyrium_fi~  10   Athyrium filix-femina  yes         3    NA     3
##  6 BGD_BIO_~ Calamagrost~   1   Calamagrostis villosa  yes         6     4     4
##  7 BGD_BIO_~ Campanula_c~   0.5 Campanula cochleariif~ yes         8     3     4
##  8 BGD_BIO_~ Campanula_s~   0.5 Campanula scheuchzeri  yes         8     2     4
##  9 BGD_BIO_~ Carex_ferru~   0.5 Carex ferruginea       yes         8     2     4
## 10 BGD_BIO_~ Chaerophyll~   0.5 Chaerophyllum hirsutum yes         6     3     4
## # i 4,985 more rows
## # i 4 more variables: F <dbl>, N <dbl>, S <dbl>, R <dbl>
…
### read back in func groups
func.fin <- read.xlsx("processed_data/species_lookup/pft_cats.xlsx", sheet="pft_cats")

# exhaustive set, too many pfts
func.exh <- func.fin %>%
  mutate(n_species=1) %>%
  group_by(PlantGrowthForm,licht_cat,temp_cat,lifeHistory,ht_cat) %>%
  summarise(across(c(cover,pres,n_species),~sum(.))) %>%
  filter(!is.na(licht_cat))
func.exh

## # A tibble: 49 x 8
## # Groups:   PlantGrowthForm, licht_cat, temp_cat, lifeHistory [29]
##    PlantGrowthForm licht_cat   temp_cat lifeHistory ht_cat cover  pres n_species
##    <chr>           <chr>       <chr>    <chr>       <chr>  <dbl> <dbl>     <dbl>
##  1 fern            light-pref  indiff   biennial-p~ short    4.5    12         2
##  2 fern            light-pref  subalpi~ biennial-p~ short   12.5    28         3
##  3 fern            light-pref  submont~ biennial-p~ short  106.    147         3
##  4 fern            shade-tol-~ indiff   biennial-p~ short   45.8    67         4
##  5 fern            shade-tol-~ indiff   biennial-p~ tall   413.    288         4
##  6 fern            shade-tol-~ subalpi~ biennial-p~ short   12.8    31         1
##  7 fern            shade-tol-~ subalpi~ biennial-p~ tall    61.9    18         2
##  8 fern            shade-tol-~ submont~ biennial-p~ short  321.    228         6
##  9 fern            shade-tol-~ submont~ biennial-p~ tall    60.5    88         3
## 10 graminoid       light-pref  indiff   biennial-p~ short  175.    193        19
## # i 39 more rows
…
